<?xml version="1.0" encoding="UTF-8" standalone="no"?>
<svg
   xmlns:dc="http://purl.org/dc/elements/1.1/"
   xmlns:cc="http://creativecommons.org/ns#"
   xmlns:rdf="http://www.w3.org/1999/02/22-rdf-syntax-ns#"
   xmlns:svg="http://www.w3.org/2000/svg"
   xmlns="http://www.w3.org/2000/svg"
   xmlns:sodipodi="http://sodipodi.sourceforge.net/DTD/sodipodi-0.dtd"
   xmlns:inkscape="http://www.inkscape.org/namespaces/inkscape"
   width="59.445877mm"
   height="29.72294mm"
   viewBox="0 0 59.445877 29.72294"
   version="1.1"
   id="svg8"
   inkscape:version="1.0.1 (0767f8302a, 2020-10-17)"
   sodipodi:docname="logoFPLab.svg">
  <defs
     id="defs2" />
  <sodipodi:namedview
     id="base"
     pagecolor="#ffffff"
     bordercolor="#666666"
     borderopacity="1.0"
     inkscape:pageopacity="0.0"
     inkscape:pageshadow="2"
     inkscape:zoom="3.0341943"
     inkscape:cx="135.00177"
     inkscape:cy="93.815518"
     inkscape:document-units="mm"
     inkscape:current-layer="g35"
     inkscape:document-rotation="0"
     showgrid="false"
     inkscape:window-width="1920"
     inkscape:window-height="1016"
     inkscape:window-x="0"
     inkscape:window-y="27"
     inkscape:window-maximized="1"
     showguides="true"
     inkscape:guide-bbox="true"
     fit-margin-top="0"
     fit-margin-left="0"
     fit-margin-right="0"
     fit-margin-bottom="0">
    <sodipodi:guide
       position="31.399431,5.5424719"
       orientation="0,-1"
       id="guide106" />
  </sodipodi:namedview>
  <metadata
     id="metadata5">
    <rdf:RDF>
      <cc:Work
         rdf:about="">
        <dc:format>image/svg+xml</dc:format>
        <dc:type
           rdf:resource="http://purl.org/dc/dcmitype/StillImage" />
        <dc:title></dc:title>
      </cc:Work>
    </rdf:RDF>
  </metadata>
  <g
     inkscape:label="Calque 1"
     inkscape:groupmode="layer"
     id="layer1"
     transform="translate(-75.779989,-37.347222)">
    <g
       aria-label="FP Lab"
       id="g35"
       style="font-style:normal;font-weight:normal;font-size:10.5833px;line-height:1.25;font-family:sans-serif;fill:#000000;fill-opacity:1;stroke:none;stroke-width:0.264583"
       transform="translate(57.574737,16.221175)">
      <rect
         id="rect79"
         width="29.72294"
         height="29.72294"
         x="47.928188"
         y="21.126047"
         style="fill:#fbbb00;fill-opacity:1;stroke-width:0.118038" />
      <rect
         id="rect81"
         width="29.72294"
         height="29.72294"
         x="18.205252"
         y="21.126047"
         style="fill:#85859c;fill-opacity:1;stroke-width:0.118038" />
      <path
         id="path25"
         style="font-style:normal;font-variant:normal;font-weight:normal;font-stretch:normal;font-size:25.4px;font-family:'Ubuntu Condensed';-inkscape-font-specification:'Ubuntu Condensed, Normal';font-variant-ligatures:normal;font-variant-caps:normal;font-variant-numeric:normal;font-variant-east-asian:normal;fill:#fbbb00;fill-opacity:1;stroke-width:0.264583"
         sodipodi:type="inkscape:offset"
         inkscape:radius="0"
         inkscape:original="M 48.089844 32.382812 L 48.089844 49.984375 L 50.376953 49.984375 L 50.376953 41.78125 L 55.355469 41.78125 L 55.355469 39.875 L 50.376953 39.875 L 50.376953 34.337891 L 55.990234 34.337891 L 55.990234 32.382812 L 48.089844 32.382812 z "
         d="m 48.089844,32.382812 v 17.601563 h 2.287109 V 41.78125 h 4.978516 V 39.875 h -4.978516 v -5.537109 h 5.613281 v -1.955079 z"
         transform="translate(-24.58444,-4.6781732)" />
      <path
         id="path27"
         style="font-style:normal;font-variant:normal;font-weight:normal;font-stretch:normal;font-size:25.4px;font-family:'Ubuntu Condensed';-inkscape-font-specification:'Ubuntu Condensed, Normal';font-variant-ligatures:normal;font-variant-caps:normal;font-variant-numeric:normal;font-variant-east-asian:normal;fill:#fbbb00;fill-opacity:1;stroke-width:0.264583"
         sodipodi:type="inkscape:offset"
         inkscape:radius="0"
         inkscape:original="M 62.384766 32.205078 C 61.250232 32.205078 60.08963 32.348852 58.904297 32.636719 L 58.904297 49.984375 L 61.191406 49.984375 L 61.191406 43.457031 L 62.257812 43.457031 C 63.155279 43.457031 63.969132 43.355544 64.697266 43.152344 C 65.442332 42.949144 66.076629 42.627767 66.601562 42.1875 C 67.126497 41.7303 67.532449 41.144794 67.820312 40.433594 C 68.108182 39.70546 68.251953 38.834359 68.251953 37.818359 C 68.251953 36.819293 68.108179 35.963153 67.820312 35.251953 C 67.54938 34.540753 67.151886 33.965657 66.626953 33.525391 C 66.118953 33.068191 65.501561 32.738356 64.773438 32.535156 C 64.062235 32.315023 63.265299 32.205078 62.384766 32.205078 z M 62.410156 34.210938 C 62.918156 34.210938 63.383307 34.270138 63.806641 34.388672 C 64.229974 34.507205 64.587133 34.71018 64.875 34.998047 C 65.1798 35.26898 65.416604 35.643054 65.585938 36.117188 C 65.755268 36.574388 65.839844 37.141026 65.839844 37.818359 C 65.839844 38.495693 65.755274 39.062331 65.585938 39.519531 C 65.416601 39.976731 65.171343 40.348852 64.849609 40.636719 C 64.527876 40.924585 64.12843 41.137971 63.654297 41.273438 C 63.197097 41.39197 62.681202 41.451172 62.105469 41.451172 L 61.191406 41.451172 L 61.191406 34.287109 C 61.56394 34.236309 61.96989 34.210937 62.410156 34.210938 z "
         d="m 62.384766,32.205078 c -1.134534,0 -2.295136,0.143774 -3.480469,0.431641 v 17.347656 h 2.287109 v -6.527344 h 1.066406 c 0.897467,0 1.71132,-0.101487 2.439454,-0.304687 0.745066,-0.2032 1.379363,-0.524577 1.904296,-0.964844 0.524935,-0.4572 0.930887,-1.042706 1.21875,-1.753906 0.28787,-0.728134 0.431641,-1.599235 0.431641,-2.615235 0,-0.999066 -0.143774,-1.855206 -0.431641,-2.566406 -0.270932,-0.7112 -0.668426,-1.286296 -1.193359,-1.726562 -0.508,-0.4572 -1.125392,-0.787035 -1.853515,-0.990235 -0.711203,-0.220133 -1.508139,-0.330078 -2.388672,-0.330078 z m 0.02539,2.00586 c 0.508,0 0.973151,0.0592 1.396485,0.177734 0.423333,0.118533 0.780492,0.321508 1.068359,0.609375 0.3048,0.270933 0.541604,0.645007 0.710938,1.119141 0.16933,0.4572 0.253906,1.023838 0.253906,1.701171 0,0.677334 -0.08457,1.243972 -0.253906,1.701172 -0.169337,0.4572 -0.414595,0.829321 -0.736329,1.117188 -0.321733,0.287866 -0.721179,0.501252 -1.195312,0.636719 -0.4572,0.118532 -0.973095,0.177734 -1.548828,0.177734 h -0.914063 v -7.164063 c 0.372534,-0.0508 0.778484,-0.07617 1.21875,-0.07617 z"
         transform="translate(-25.113606,-4.6781732)" />
      <path
         d="m 58.41107,43.743344 v 1.386022 H 52.848982 V 32.65517 h 1.620026 v 11.088174 z"
         style="font-style:normal;font-variant:normal;font-weight:normal;font-stretch:normal;font-size:25.4px;font-family:'Ubuntu Condensed';-inkscape-font-specification:'Ubuntu Condensed, Normal';font-variant-ligatures:normal;font-variant-caps:normal;font-variant-numeric:normal;font-variant-east-asian:normal;fill:#85859c;fill-opacity:1;stroke-width:0.187503"
         id="path29" />
      <path
         d="m 60.341856,35.877221 q 0.468007,-0.198003 0.990015,-0.306005 0.522007,-0.126002 1.134012,-0.126002 1.260014,0 2.052018,0.792012 0.792012,0.774013 0.792012,2.430039 v 6.264098 q -0.64801,0.180003 -1.332018,0.288004 -0.666002,0.108002 -1.314011,0.108002 -0.648006,0 -1.224011,-0.162003 -0.558009,-0.162002 -0.990016,-0.522008 -0.414006,-0.360005 -0.66601,-0.900014 -0.252004,-0.558009 -0.252004,-1.350021 0,-0.738011 0.216003,-1.27802 0.234004,-0.558009 0.63001,-0.918014 0.396006,-0.378006 0.936015,-0.558009 0.540007,-0.198003 1.170013,-0.198003 0.594005,0 1.314012,0.144002 v -0.864013 q 0,-1.044017 -0.414002,-1.458023 -0.396004,-0.414007 -1.152012,-0.414007 -0.414004,0 -0.792009,0.09 -0.360006,0.072 -0.774012,0.252004 z m 0.738011,6.498101 q 0,0.828013 0.432007,1.22402 0.432003,0.396006 1.224012,0.396006 0.486005,0 1.06201,-0.126002 v -3.006047 q -0.540004,-0.144002 -1.06201,-0.144002 -0.342004,0 -0.648006,0.09 -0.306003,0.072 -0.540007,0.270005 -0.216002,0.180003 -0.342004,0.504008 -0.126002,0.306004 -0.126002,0.792012 z"
         style="font-style:normal;font-variant:normal;font-weight:normal;font-stretch:normal;font-size:25.4px;font-family:'Ubuntu Condensed';-inkscape-font-specification:'Ubuntu Condensed, Normal';font-variant-ligatures:normal;font-variant-caps:normal;font-variant-numeric:normal;font-variant-east-asian:normal;fill:#85859c;fill-opacity:1;stroke-width:0.187503"
         id="path31" />
      <path
         d="m 68.715959,43.869346 q 0.252004,0.072 0.486008,0.108002 0.234004,0.018 0.432007,0.018 1.044016,0 1.548024,-0.828013 0.522008,-0.846013 0.522008,-2.790043 0,-1.008016 -0.126002,-1.692027 -0.126002,-0.684011 -0.378006,-1.098017 -0.234003,-0.414007 -0.576009,-0.59401 -0.342005,-0.180003 -0.792012,-0.180003 -0.59401,0 -1.116018,0.288005 z m 0,-8.118127 q 0.288005,-0.144003 0.576009,-0.216004 0.306005,-0.09 0.720012,-0.09 0.882014,0 1.512024,0.360006 0.630009,0.342005 1.026016,0.990015 0.396006,0.63001 0.576009,1.548025 0.198003,0.900014 0.198003,2.034032 0,2.502038 -0.900014,3.744058 -0.882014,1.24202 -2.790044,1.24202 -0.666011,0 -1.314021,-0.144003 -0.64801,-0.126002 -1.152018,-0.342005 V 31.431151 l 1.548024,-0.270005 z"
         style="font-style:normal;font-variant:normal;font-weight:normal;font-stretch:normal;font-size:25.4px;font-family:'Ubuntu Condensed';-inkscape-font-specification:'Ubuntu Condensed, Normal';font-variant-ligatures:normal;font-variant-caps:normal;font-variant-numeric:normal;font-variant-east-asian:normal;fill:#85859c;fill-opacity:1;stroke-width:0.187503"
         id="path33" />
    </g>
  </g>
</svg>
